…
### 2. `group_by()` 和 `summarize()`：

請利用 `df_mrt_longer` 計算台北捷運每日的總出站人數，並將結果由總出站人數大到小排列

```{r message=FALSE,warning=FALSE}
### your code

### result
#> # A tibble: 28 × 2
#>    date             n
#>    <date>       <dbl>
#>  1 2022-02-25 2108650
#>  2 2022-02-18 1952448
#>  3 2022-02-24 1952311
#>  4 2022-02-23 1943921
#>  5 2022-02-22 1928146
#>  6 2022-02-11 1875738
#>  7 2022-02-21 1867167
#>  8 2022-02-17 1824938
#>  9 2022-02-16 1819771
#> 10 2022-02-14 1803972
#> # … with 18 more rows
```
…
### 4. `join()` and `mutate()`:

請幫我串接 `df_dmajor_105` 和 `df_college_join`，接著計算各學院之間雙主修的人數，將結果儲存成 `df_dmajor_105_college` 並印出。

```{r message=FALSE, warning=FALSE}
### your code

### your result should be
#> # A tibble: 70 × 3
#>    college_original college_dmajor     n
#>    <chr>            <chr>          <int>
#>  1 公衛學院         生科學院           1
#>  2 工學院           工學院             6
#>  3 工學院           文學院             3
#>  4 工學院           理學院             7
#>  5 工學院           生農學院           1
#>  6 工學院           社科院             7
#>  7 工學院           管理學院           3
#>  8 工學院           電資學院           3
#>  9 文學院           公衛學院           1
#> 10 文學院           工學院             1
#> # … with 60 more rows
```
…
