…
### (2) cleaning（20分）

這個資料的原始結構有點複雜，請嘗試列出 `id`, `date`, `query`, `formattedTraffic`, `title`, `source`, `url`, `snippet` 等欄位。其中，`id` 和 `date` 是自行加入的欄位，其他都是上一小題就能抓到的結果。這題比較難，所以配分低一些。

提示：
a. `id`: 可以利用 `mutate(id = row_number())`    
b. 原始的 dataframe 不是一般常見的 dataframe，有些 column 本身是 list，又被稱為 nested dataframe，處理起來很麻煩，建議可以用 `$`   
c. 會用到 2 次 `left_join()`   

```{r message=FALSE, warning=FALSE}
### your code

### result
#> # A tibble: 863 × 8
#>    id        date query  formattedTraffic title     source  url       snippet   
#>    <chr>    <dbl> <chr>  <chr>            <chr>     <chr>   <chr>     <chr>     
#>  1 21    20220427 食藥署 10萬+            快篩實名… ETtoday https://… 指揮中心… 
#>  2 21    20220427 食藥署 10萬+            家用快篩… ELLE …  https://… 在本土Cov…
#>  3 21    20220427 食藥署 10萬+            懶人包／… udn 元… https://… 本土疫情… 
#>  4 21    20220427 食藥署 10萬+            COVID-19… Heho健… https://… 因應確診… 
#>  5 21    20220427 食藥署 10萬+            懶人包／… Yahoo…  https://… 三、販售… 
#>  6 21    20220427 食藥署 10萬+            黑髮漂色… 健康醫… https://… 東方人的… 
#>  7 21    20220427 食藥署 10萬+            快篩實名… 遠見雜… https://… 指揮中心… 
#>  8 22    20220427 陳昱瑋 10萬+            勾惡「陳… 台灣蘋… https://… 網紅連千… 
#>  9 22    20220427 陳昱瑋 10萬+            勾惡幫主… ETtoda… https://… YouTube頻…
#> 10 22    20220427 陳昱瑋 10萬+            遭連千毅… 三立新… https://… 網紅直播… 
#> # … with 853 more rows
```
