Lab04_Data-Manipulation-Joining
…
---
# dplyr: group and summarize

- 舉例
 - 計算各子板、各類型文章數量的**佔比**

```r
df_main_clean %>% group_by(board, type) %>%
  summarise(n = n()) %>%
  mutate(per = n/sum(n))
```

```
## # A tibble: 60 × 4
## # Groups:   board [4]
##    board       type       n     per
##    <chr>       <chr>  <int>   <dbl>
##  1 China-Drama [Live]    45 0.125  
##  2 China-Drama [公告]     4 0.0111 
##  3 China-Drama [創作]     9 0.0249 
##  4 China-Drama [問題]    33 0.0914 
##  5 China-Drama [心得]   128 0.355  
##  6 China-Drama [情報]    12 0.0332 
##  7 China-Drama [新聞]     9 0.0249 
##  8 China-Drama [板務]     1 0.00277
##  9 China-Drama [求薦]     7 0.0194 
## 10 China-Drama [討論]     1 0.00277
## # … with 50 more rows
```
…
